﻿{
   "CodeGenerationMode": 3,
   "ContextClassName": "FreudenbergContext",
   "ContextNamespace": null,
   "DefaultDacpacSchema": null,
   "FilterSchemas": false,
   "IncludeConnectionString": false,
   "ModelNamespace": null,
   "OutputContextPath": null,
   "OutputPath": "Models",
   "PreserveCasingWithRegex": true,
   "ProjectRootNamespace": "EntityFramework",
   "Schemas": null,
   "SelectedHandlebarsLanguage": 0,
   "SelectedToBeGenerated": 0,
   "T4TemplatePath": null,
   "Tables": [
      {
         "Name": "[dbo].[Environment]",
         "ObjectType": 0
      },
      {
         "Name": "[dbo].[FilterType]",
         "ObjectType": 0
      },
      {
         "Name": "[dbo].[HotMeltGranulat]",
         "ObjectType": 0
      },
      {
         "Name": "[dbo].[HotMeltGranulatSupplier]",
         "ObjectType": 0
      },
      {
         "Name": "[dbo].[IRImager]",
         "ObjectType": 0
      },
      {
         "Name": "[dbo].[IRMeasurement]",
         "ObjectType": 0
      },
      {
         "Name": "[dbo].[Location]",
         "ObjectType": 0
      },
      {
         "Name": "[dbo].[ProcessData]",
         "ObjectType": 0
      },
      {
         "Name": "[dbo].[ProcessDataSetPoint]",
         "ObjectType": 0
      },
      {
         "Name": "[dbo].[ProductionMachine]",
         "ObjectType": 0
      },
      {
         "Name": "[dbo].[StatisticalData]",
         "ObjectType": 0
      }
   ],
   "UiHint": "tut\\sqlexpress.Freudenberg.dbo",
   "UncountableWords": null,
   "UseBoolPropertiesWithoutDefaultSql": false,
   "UseDatabaseNames": false,
   "UseDateOnlyTimeOnly": false,
   "UseDbContextSplitting": false,
   "UseFluentApiOnly": true,
   "UseHandleBars": false,
   "UseHierarchyId": false,
   "UseInflector": true,
   "UseLegacyPluralizer": false,
   "UseManyToManyEntity": false,
   "UseNoDefaultConstructor": false,
   "UseNoObjectFilter": false,
   "UseNodaTime": false,
   "UseNullableReferences": false,
   "UseSchemaFolders": false,
   "UseSchemaNamespaces": false,
   "UseSpatial": false,
   "UseT4": false
}